{
    "data": [
        {
            "id": 6,
            "title": "웹 성능 최적화 기법",
            "content": "번들 크기 최적화, 코드 스플리팅, 이미지 최적화 등을 다룹니다.",
            "authorId": 1,
            "authorName": "김철수",
            "likes": 28,
            "comments": 4,
            "createdAt": "2024-05-06T13:10:00Z"
        },
        {
            "id": 7,
            "title": "GraphQL vs REST API",
            "content": "두 API 스타일의 차이점과 각각의 장단점을 살펴봅시다.",
            "authorId": 4,
            "authorName": "정수진",
            "likes": 19,
            "comments": 7,
            "createdAt": "2024-05-07T15:30:00Z"
        },
        {
            "id": 8,
            "title": "테스트 주도 개발 (TDD)",
            "content": "TDD의 원칙과 실제 적용 방법을 알아봅시다.",
            "authorId": 3,
            "authorName": "박민수",
            "likes": 16,
            "comments": 3,
            "createdAt": "2024-05-08T10:45:00Z"
        },
        {
            "id": 9,
            "title": "상태 관리 라이브러리 비교",
            "content": "Redux, Zustand, Jotai 등 다양한 상태 관리 라이브러리를 비교합니다.",
            "authorId": 1,
            "authorName": "김철수",
            "likes": 35,
            "comments": 12,
            "createdAt": "2024-05-09T09:00:00Z"
        },
        {
            "id": 10,
            "title": "모던 JavaScript 문법 정리",
            "content": "ES6+ 문법들을 정리하고 실제 사용 예시를 보여드립니다.",
            "authorId": 5,
            "authorName": "최동욱",
            "likes": 21,
            "comments": 5,
            "createdAt": "2024-05-10T12:00:00Z"
        }
    ],
    "pagination": {
        "page": 2,
        "pageSize": 5,
        "totalPages": 3,
        "totalItems": 15,
        "hasNextPage": true
    }
}
