{
    "data": [
        {
            "id": 11,
            "title": "서버 사이드 렌더링 (SSR)",
            "content": "Next.js를 사용한 SSR 구현 방법을 알아봅시다.",
            "authorId": 2,
            "authorName": "이영희",
            "likes": 27,
            "comments": 9,
            "createdAt": "2024-05-11T14:20:00Z"
        },
        {
            "id": 12,
            "title": "마이크로프론트엔드 아키텍처",
            "content": "큰 규모의 프론트엔드 애플리케이션을 위한 마이크로프론트엔드 패턴을 소개합니다.",
            "authorId": 4,
            "authorName": "정수진",
            "likes": 33,
            "comments": 11,
            "createdAt": "2024-05-12T16:00:00Z"
        },
        {
            "id": 13,
            "title": "웹 접근성 (a11y) 가이드",
            "content": "모든 사용자가 접근할 수 있는 웹사이트를 만드는 방법을 알아봅시다.",
            "authorId": 3,
            "authorName": "박민수",
            "likes": 20,
            "comments": 4,
            "createdAt": "2024-05-13T10:30:00Z"
        },
        {
            "id": 14,
            "title": "CI/CD 파이프라인 구축하기",
            "content": "GitHub Actions를 사용한 자동화된 배포 프로세스를 설정합니다.",
            "authorId": 1,
            "authorName": "김철수",
            "likes": 29,
            "comments": 6,
            "createdAt": "2024-05-14T13:45:00Z"
        },
        {
            "id": 15,
            "title": "데이터베이스 설계 원칙",
            "content": "효율적인 데이터베이스 스키마 설계 방법을 다룹니다.",
            "authorId": 5,
            "authorName": "최동욱",
            "likes": 17,
            "comments": 3,
            "createdAt": "2024-05-15T11:15:00Z"
        }
    ],
    "pagination": {
        "page": 3,
        "pageSize": 5,
        "totalPages": 3,
        "totalItems": 15,
        "hasNextPage": false
    }
}
