{
    "data": [
        {
            "id": 1,
            "title": "TanStack Query 시작하기",
            "content": "TanStack Query는 서버 상태 관리를 위한 강력한 라이브러리입니다.",
            "authorId": 1,
            "authorName": "김철수",
            "likes": 24,
            "comments": 5,
            "createdAt": "2024-05-01T10:00:00Z"
        },
        {
            "id": 2,
            "title": "React Hooks 완벽 가이드",
            "content": "useState, useEffect, useCallback 등 React Hooks를 자세히 알아봅시다.",
            "authorId": 2,
            "authorName": "이영희",
            "likes": 18,
            "comments": 3,
            "createdAt": "2024-05-02T14:30:00Z"
        },
        {
            "id": 3,
            "title": "TypeScript 타입 시스템 이해하기",
            "content": "TypeScript의 타입 시스템을 깊이 있게 살펴보겠습니다.",
            "authorId": 1,
            "authorName": "김철수",
            "likes": 31,
            "comments": 8,
            "createdAt": "2024-05-03T09:15:00Z"
        },
        {
            "id": 4,
            "title": "Vite로 빠른 개발 환경 구축하기",
            "content": "Vite를 사용하면 개발 서버가 훨씬 빠르게 시작됩니다.",
            "authorId": 3,
            "authorName": "박민수",
            "likes": 15,
            "comments": 2,
            "createdAt": "2024-05-04T16:45:00Z"
        },
        {
            "id": 5,
            "title": "CSS-in-JS vs CSS Modules",
            "content": "두 방식의 장단점을 비교해봅시다.",
            "authorId": 2,
            "authorName": "이영희",
            "likes": 22,
            "comments": 6,
            "createdAt": "2024-05-05T11:20:00Z"
        }
    ],
    "pagination": {
        "page": 1,
        "pageSize": 5,
        "totalPages": 3,
        "totalItems": 15,
        "hasNextPage": true
    }
}
